C:\Users\Zara Mudassar\to-do-applikasjon\ToDoListProgram\src\main\java\ntnu\idatt2001\k2_04\to_doListApp\PrimaryController.java
C:\Users\Zara Mudassar\to-do-applikasjon\ToDoListProgram\src\main\java\ntnu\idatt2001\k2_04\to_doListApp\SecondaryController.java
C:\Users\Zara Mudassar\to-do-applikasjon\ToDoListProgram\src\main\java\ntnu\idatt2001\k2_04\to_doListApp\SubTask.java
C:\Users\Zara Mudassar\to-do-applikasjon\ToDoListProgram\src\main\java\ntnu\idatt2001\k2_04\to_doListApp\Task.java
C:\Users\Zara Mudassar\to-do-applikasjon\ToDoListProgram\src\main\java\ntnu\idatt2001\k2_04\to_doListApp\App.java
C:\Users\Zara Mudassar\to-do-applikasjon\ToDoListProgram\src\main\java\module-info.java
C:\Users\Zara Mudassar\to-do-applikasjon\ToDoListProgram\src\main\java\ntnu\idatt2001\k2_04\to_doListApp\User.java
C:\Users\Zara Mudassar\to-do-applikasjon\ToDoListProgram\src\main\java\ntnu\idatt2001\k2_04\to_doListApp\ShowTaskDetailController.java
C:\Users\Zara Mudassar\to-do-applikasjon\ToDoListProgram\src\main\java\ntnu\idatt2001\k2_04\to_doListApp\Category.java
C:\Users\Zara Mudassar\to-do-applikasjon\ToDoListProgram\src\main\java\ntnu\idatt2001\k2_04\to_doListApp\MainTask.java
C:\Users\Zara Mudassar\to-do-applikasjon\ToDoListProgram\src\main\java\ntnu\idatt2001\k2_04\to_doListApp\addSubTaskController.java
C:\Users\Zara Mudassar\to-do-applikasjon\ToDoListProgram\src\main\java\ntnu\idatt2001\k2_04\to_doListApp\AddTaskController.java
